Compensatory Renal Hypertrophy : miRNA-seq Analysis
…
table(regulation@data$type)

## 
## disease.drug    predicted    validated 
##           13         3760         2426

a<- regulation@data

result <- select(regulation, keytype = "type", keys = "validated", columns = columns(regulation))
unique_pairs <- 
    result[!duplicated(result[, c("mature_mirna_id", "target_entrez")]), ]

unique_pairs

## # A tibble: 2,331 x 13
##    database   mature_mirna_acc mature_mirna_id target_symbol target_entrez
##    <chr>      <chr>            <chr>           <chr>         <chr>        
##  1 mirecords  MIMAT0000530     mmu-miR-21a-5p  Btg2          12227        
##  2 mirecords  MIMAT0000530     mmu-miR-21a-5p  Peli1         67245        
##  3 mirecords  MIMAT0000530     mmu-miR-21a-5p  Pdcd4         18569        
##  4 mirtarbase MIMAT0000677     mmu-miR-7a-5p   Gla           11605        
##  5 mirtarbase MIMAT0000522     mmu-let-7b-5p   Atp6v1b2      11966        
##  6 mirtarbase MIMAT0000522     mmu-let-7b-5p   Bach1         12013        
##  7 mirtarbase MIMAT0000708     mmu-miR-363-3p  Btg2          12227        
##  8 mirtarbase MIMAT0005856     mmu-miR-1195    Car8          12319        
##  9 mirtarbase MIMAT0000522     mmu-let-7b-5p   Cbx5          12419        
## 10 mirtarbase MIMAT0000122     mmu-let-7i-5p   Col1a2        12843        
## # ... with 2,321 more rows, and 8 more variables: target_ensembl <chr>,
## #   experiment <chr>, support_type <chr>, pubmed_id <chr>, type <chr>,
## #   score <chr>, disease_drug <chr>, paper_pubmedID <chr>
…
